…
``` r
hfi_2016 <-  data %>%  
  filter(year == 2016)
hfi_2016
```

    ## # A tibble: 162 × 123
    ##     year ISO_code countries  region               pf_rol_procedural pf_rol_civil
    ##    <dbl> <chr>    <chr>      <chr>                            <dbl>        <dbl>
    ##  1  2016 ALB      Albania    Eastern Europe                    6.66         4.55
    ##  2  2016 DZA      Algeria    Middle East & North…             NA           NA   
    ##  3  2016 AGO      Angola     Sub-Saharan Africa               NA           NA   
    ##  4  2016 ARG      Argentina  Latin America & the…              7.10         5.79
    ##  5  2016 ARM      Armenia    Caucasus & Central …             NA           NA   
    ##  6  2016 AUS      Australia  Oceania                           8.44         7.53
    ##  7  2016 AUT      Austria    Western Europe                    8.97         7.87
    ##  8  2016 AZE      Azerbaijan Caucasus & Central …             NA           NA   
    ##  9  2016 BHS      Bahamas    Latin America & the…              6.93         6.01
    ## 10  2016 BHR      Bahrain    Middle East & North…             NA           NA   
    ## # ℹ 152 more rows
    ## # ℹ 117 more variables: pf_rol_criminal <dbl>, pf_rol <dbl>,
    ## #   pf_ss_homicide <dbl>, pf_ss_disappearances_disap <dbl>,
    ## #   pf_ss_disappearances_violent <dbl>, pf_ss_disappearances_organized <dbl>,
    ## #   pf_ss_disappearances_fatalities <dbl>, pf_ss_disappearances_injuries <dbl>,
    ## #   pf_ss_disappearances <dbl>, pf_ss_women_fgm <dbl>,
    ## #   pf_ss_women_missing <dbl>, pf_ss_women_inheritance_widows <dbl>, …
…
In order to do these checks we need access to the fitted (predicted)
values and the residuals. We can use `broom::augment` to calculate
these.

- In the code chunk below titled `augment`, replace “verbatim” with “r”
  just before the code chunk title.

``` r
slr_aug <- augment(model)

slr_aug
```

    ## # A tibble: 162 × 8
    ##    hfi_2016$pf_expression_c…¹ `hfi_2016$pf_score` .fitted  .resid    .hat .sigma
    ##                         <dbl>               <dbl>   <dbl>   <dbl>   <dbl>  <dbl>
    ##  1                       5.25                7.60    5.79 -0.541  0.00722   1.25
    ##  2                       4                   5.28    2.74  1.26   0.0143    1.25
    ##  3                       2.5                 6.11    3.83 -1.33   0.00831   1.25
    ##  4                       5.5                 8.10    6.45 -0.954  0.00965   1.25
    ##  5                       4.25                6.91    4.89 -0.640  0.00619   1.25
    ##  6                       7.75                9.18    7.88 -0.134  0.0197    1.25
    ##  7                       8                   9.25    7.97  0.0338 0.0205    1.25
    ##  8                       0.25                5.68    3.26 -3.01   0.0110    1.23
    ##  9                       7.25                7.45    5.60  1.65   0.00679   1.24
    ## 10                       0.75                6.14    3.87 -3.12   0.00819   1.23
    ## # ℹ 152 more rows
    ## # ℹ abbreviated name: ¹​`hfi_2016$pf_expression_control`
    ## # ℹ 2 more variables: .cooksd <dbl>, .std.resid <dbl>
…
